sc-trace/wave.vcd
$date
     Jul 08, 2026       04:47:10
$end

$version
 SystemC 3.0.1-Accellera --- Jun 12 2026 09:59:43
$end

$timescale
     10 ps
$end

$scope module SystemC $end
$scope module tb $end
$var wire    1  aaaaa  clk       $end
$var wire    1  aaaab  reset       $end
$var wire    1  aaaac  enable       $end
$var wire    8  aaaad  count [7:0]  $end
$var wire    4  aaaae  state [3:0]  $end
$var wire    8  aaaaf  data_int [7:0]  $end
$var wire   16  aaaag  data_bigint [15:0]  $end
$var wire    1  aaaah  data_logic       $end
$var wire    1  aaaai  clk       $end
$scope module control $end
$var wire    4  aaaak  state [3:0]  $end
$upscope $end
$scope module datapath $end
$var wire    8  aaaaj  count [7:0]  $end
$upscope $end
$upscope $end
$upscope $end
$enddefinitions  $end

$comment
All initial values are dumped below at time 0 sec = 0 timescale units.
$end

$dumpvars
1aaaaa
1aaaab
0aaaac
b0 aaaad
b0 aaaae
b0 aaaaf
b0 aaaag
1aaaah
1aaaai
b0 aaaaj
b0 aaaak
$end

#250
0aaaaa
0aaaai

#500
1aaaaa
0aaaab
1aaaac
b1 aaaad
b1 aaaae
b1 aaaaf
b1100100 aaaag
0aaaah
1aaaai
b1 aaaaj
b1 aaaak

#750
0aaaaa
0aaaai

#1000
1aaaaa
b10 aaaad
b10 aaaaf
b11001000 aaaag
1aaaah
1aaaai
b10 aaaaj

#1250
0aaaaa
0aaaai

#1500
1aaaaa
b11 aaaad
b11 aaaaf
b100101100 aaaag
0aaaah
1aaaai
b11 aaaaj

#1750
0aaaaa
0aaaai

#2000
1aaaaa
b100 aaaad
b100 aaaaf
b110010000 aaaag
1aaaah
1aaaai
b100 aaaaj

#2250
0aaaaa
0aaaai

#2500
1aaaaa
b101 aaaad
b10 aaaae
b101 aaaaf
b111110100 aaaag
0aaaah
1aaaai
b101 aaaaj
b10 aaaak

#2750
0aaaaa
0aaaai

#3000
1aaaaa
b110 aaaad
b110 aaaaf
b1001011000 aaaag
1aaaah
1aaaai
b110 aaaaj

#3250
0aaaaa
0aaaai

#3500
1aaaaa
b111 aaaad
b111 aaaaf
b1010111100 aaaag
0aaaah
1aaaai
b111 aaaaj

#3750
0aaaaa
0aaaai

#4000
1aaaaa
b1000 aaaad
b1000 aaaaf
b1100100000 aaaag
1aaaah
1aaaai
b1000 aaaaj

#4250
0aaaaa
0aaaai

#4500
1aaaaa
b1001 aaaad
b1001 aaaaf
b1110000100 aaaag
0aaaah
1aaaai
b1001 aaaaj

#4750
0aaaaa
0aaaai

#5000
1aaaaa
b1010 aaaad
b100 aaaae
b1010 aaaaf
b1111101000 aaaag
1aaaah
1aaaai
b1010 aaaaj
b100 aaaak

#5250
0aaaaa
0aaaai

#5500
1aaaaa
b1011 aaaad
b1011 aaaaf
b10001001100 aaaag
0aaaah
1aaaai
b1011 aaaaj

#5750
0aaaaa
0aaaai

#6000
1aaaaa
b1100 aaaad
b1100 aaaaf
b10010110000 aaaag
1aaaah
1aaaai
b1100 aaaaj

#6250
0aaaaa
0aaaai

#6500
1aaaaa
b1101 aaaad
b1101 aaaaf
b10100010100 aaaag
0aaaah
1aaaai
b1101 aaaaj

#6750
0aaaaa
0aaaai

#7000
1aaaaa
b1110 aaaad
b1110 aaaaf
b10101111000 aaaag
1aaaah
1aaaai
b1110 aaaaj

#7250
0aaaaa
0aaaai

#7500
1aaaaa
b1111 aaaad
b1111 aaaaf
b10111011100 aaaag
0aaaah
1aaaai
b1111 aaaaj

#7750
0aaaaa
0aaaai

#8000
1aaaaa
b10000 aaaad
b10000 aaaaf
b11001000000 aaaag
1aaaah
1aaaai
b10000 aaaaj

#8250
0aaaaa
0aaaai

#8500
1aaaaa
b10001 aaaad
b10001 aaaaf
b11010100100 aaaag
0aaaah
1aaaai
b10001 aaaaj

#8750
0aaaaa
0aaaai

#9000
1aaaaa
b10010 aaaad
b10010 aaaaf
b11100001000 aaaag
1aaaah
1aaaai
b10010 aaaaj

#9250
0aaaaa
0aaaai

#9500
1aaaaa
b10011 aaaad
b10011 aaaaf
b11101101100 aaaag
0aaaah
1aaaai
b10011 aaaaj

#9750
0aaaaa
0aaaai

#10000
1aaaaa
b10100 aaaad
b10100 aaaaf
b11111010000 aaaag
1aaaah
1aaaai
b10100 aaaaj

#10250
0aaaaa
0aaaai

#10500
1aaaaa
0aaaac
b10101 aaaaf
b100000110100 aaaag
0aaaah
1aaaai

#10750
0aaaaa
0aaaai

#11000
1aaaaa
b10110 aaaaf
b100010011000 aaaag
1aaaah
1aaaai

